RNA-Seq Quality Assessment
…
/usr/bin/time -v htseq-count -s yes \
aligned/28_4D_mbnl_S20_L008_Aligned.sorted.sam mus/Mus_musculus.GRCm39.104.gtf \
> aligned/28_4D_mbnl_S20_L008.stranded.genecount

/usr/bin/time -v htseq-count -s no \
aligned/28_4D_mbnl_S20_L008_Aligned.sorted.sam mus/Mus_musculus.GRCm39.104.gtf \
> aligned/28_4D_mbnl_S20_L008.unstranded.genecount

exit

HTSeq-Count results:

## # A tibble: 55,420 x 2
##    ENSMUSG00000000001   `4`
##    <chr>              <dbl>
##  1 ENSMUSG00000000003     0
##  2 ENSMUSG00000000028     6
##  3 ENSMUSG00000000031     0
##  4 ENSMUSG00000000037     0
##  5 ENSMUSG00000000049    16
##  6 ENSMUSG00000000056     3
##  7 ENSMUSG00000000058     2
##  8 ENSMUSG00000000078     3
##  9 ENSMUSG00000000085     7
## 10 ENSMUSG00000000088     4
## # ... with 55,410 more rows

## # A tibble: 55,420 x 2
##    ENSMUSG00000000001 `1372`
##    <chr>               <dbl>
##  1 ENSMUSG00000000003      0
##  2 ENSMUSG00000000028    652
##  3 ENSMUSG00000000031      0
##  4 ENSMUSG00000000037      0
##  5 ENSMUSG00000000049      0
##  6 ENSMUSG00000000056    164
##  7 ENSMUSG00000000058    547
##  8 ENSMUSG00000000078   1065
##  9 ENSMUSG00000000085    341
## 10 ENSMUSG00000000088    314
## # ... with 55,410 more rows

## # A tibble: 55,420 x 2
##    ENSMUSG00000000001   `5`
##    <chr>              <dbl>
##  1 ENSMUSG00000000003     0
##  2 ENSMUSG00000000028     4
##  3 ENSMUSG00000000031     0
##  4 ENSMUSG00000000037     0
##  5 ENSMUSG00000000049    21
##  6 ENSMUSG00000000056     4
##  7 ENSMUSG00000000058     1
##  8 ENSMUSG00000000078     2
##  9 ENSMUSG00000000085     4
## 10 ENSMUSG00000000088     4
## # ... with 55,410 more rows

## # A tibble: 55,420 x 2
##    ENSMUSG00000000001 `2901`
##    <chr>               <dbl>
##  1 ENSMUSG00000000003      0
##  2 ENSMUSG00000000028    988
##  3 ENSMUSG00000000031      0
##  4 ENSMUSG00000000037      0
##  5 ENSMUSG00000000049      0
##  6 ENSMUSG00000000056    305
##  7 ENSMUSG00000000058    698
##  8 ENSMUSG00000000078   1387
##  9 ENSMUSG00000000085    408
## 10 ENSMUSG00000000088    400
## # ... with 55,410 more rows
…
